﻿    Протокол связи метеостанции с хостом
================================================================================
Этот документ описывает протокол, использующийся для связи метеостанции
c USB хост-устройством (персональным компьютером).


    Физический уровень
================================================================================
Разъем связи                            USB mini
Интерфейс передачи данных               UART (через USB-UART-конвертер CH341)
Размер байта                            8 бит
Бит четности по умолчанию               нет (none)
Стоп-биты                               1
Скорость обмена по умолчанию            115200 бод/с
================================================================================


    Типы данных
================================================================================
Используется порядок байт Big-Endian.

================================================================================
u8      uint8_t     unsigned char
u16     uint16_t    unsigned short int
u32     uint32_t    unsigned long int
i8      int8_t      signed char
i16     int16_t     signed short int
i32     int32_t     signed long int
Str0                нуль-терминированная строка
================================================================================


    Описание сеанса связи
================================================================================
Обмен данными происходит по принципу запрос-ответ.
Хост отправляет запрос, метеостанция отправляет ответ.
Контрольная сумма не используется.
Каждый запрос начинается символом 'M' (0x4D), за которым следует код запроса.
Каждый ответ начинается символом 'M' (0x4D), за которым следует код запроса.

================================================================================
Код     Данные  Данные  Команда / Ответ
запроса запроса ответа
================================================================================
'L'                     Запрос одной записи из журнала
        u32             Номер записи (первый байт старший).
                u8[16]  Запись журнала (16 байт).
________________________________________________________________________________
'C'                     Запрос текущих данных датчиков
                u32     Влажность относительная, % (первый байт младший)
                u32     Давление, Па (первый байт младший)
                u32     Температура х100, гр. С (первый байт младший)
                u32     Освещенность, лк (первый байт младший)
________________________________________________________________________________
'I'                     Запрос информации о приборе
                Str0    Название устройства
                Str0    Версия встроенного ПО и локализация
                Str0    Дата выпуска встроенного ПО
                Str0    Авторство встроенного ПО
________________________________________________________________________________
'S'                     Запрос настроек
                u8[25]  Массив настроек
________________________________________________________________________________
'T'                     Запрос текущего системного времени
                u32     Время в секундах, прошедших с 2000 года
                        (первый байт младший)
________________________________________________________________________________
'E'                     Команда очистки журнала
                u8      '+' - по окончании очистки
================================================================================


Формат записи журнала
================================================================================
typedef struct {                // Структура записи лога:
  unsigned  bit_st      : 1;    // флаг установки летнего времени
  unsigned  bit_battery : 7;    // [%] уровень заряда АБ

  int8_t    st_shift;           // сдвиг установки летнего времени в минутах
  int16_t   timezone;           // часовой пояс в минутах
  uint32_t  datetime;           // дата и время в секундах с начала 2000 г.

  uint8_t   humidity;           // [%] относительная влажность
  uint32_t  pressure    : 24;   // [Па] давление
  int16_t   temperature;        // [гр.С] температура, х100
  uint16_t  lux;                // [люкс] освещенность
} MeteoLogRecord_t;
================================================================================


Формат массива настроек
================================================================================
typedef struct {
  uint8_t   humidityValue;      // отображаемое значение влажности на домашнем экране
  uint8_t   pressureUnit;       // единица измерения давления
  uint8_t   pressureValue;      // отображаемое значение давления на домашнем экране
  uint8_t   pressureDeltaUnit;  // единица измерения разности давления
  uint8_t   temperatureUnit;    // единица измерения температуры
  uint8_t   temperatureValue;   // отображаемое значение температуры на домашнем экране
  uint8_t   batteryUnit;        // единица измерения заряда аккумулятора
  int8_t    timeDSTdelta;       // смещение летнего времени, минуты
  uint8_t   timeDSTmode;        // режим перехода на летнее время
  int16_t   timeZone;           // часовой пояс в минутах смещения
  uint8_t   displayContrast;    // контраст (яркость) дисплея
  uint8_t   displayInvert;      // инверсия дисплея
  uint8_t   timePowerOff;       // время автовыключения устройства
  uint8_t   timeDisplayOff;     // время выключения дисплея (перехода в ждущий режим)
  uint16_t  deviceAltitude;     // высота устройства над у.м., метры
  uint32_t  logAddress;         // текущая запись журнала
  uint8_t   logPeriodM;         // период журналирования, минуты
  uint8_t   logPeriodS;         // период журналирования, секунды
  uint8_t   lightAttenuation;   // ослабление уровня освещенности, %
  uint8_t   updateFlag;         // флаг режима обновления ПО
} ProjectSettings_t;
================================================================================
